<?xml version="1.0"?>
<!-- Generator: Adobe Illustrator 15.0.2, SVG Export Plug-In . SVG Version: 6.00 Build 0)  -->
<svg xmlns="http://www.w3.org/2000/svg" xmlns:xlink="http://www.w3.org/1999/xlink" id="svg1" width="1583.5" height="808.65" enable-background="new 0 0 2000 2000" version="1.1" viewBox="0 0 1583.5 808.65" xml:space="preserve"><g id="svg1-view"><svg><g id="Layer_5" transform="translate(-171.15 -557.43)"><path id="path5" d="m1464.8 866.25h-310.96l-8.125-26.75-4.965-17.625-49.41-.125-14 .125h-172.5v-9.018h-17.843l.218 4.018-1.5 11.5h198.75l3.75 17.125 1.875 8.125 7 32.75-.875 10.25 8.125 34.626h-67.943l-.432 5.999h-62.875l-.286-5.999h-54.899l-.19 5.999h-197.75l-1.375-10.417 29.375-98.458h117.5l.061-8.036.845-7.482h-23.996l-1.911 12.268h-131.87l-11.292 33.375-6.333 17.375-12.625 35.875h-217.62l-16.25 22.274h30.706l5.627-9.358 188 .167 1.333 10.5-11.166 32.167-16.167 45.5-10.333 29.166-5 12.167h13.667l2.167 10.834-16 46.666h309.5v-17.583h46.166l.457 11.333h19.043l.917-10.833h196.75l50.999 179.25-2.5 11.833 9.167 25.25h107.67l-34.625-92.959-54.375-145.29-11.499-30.333-3.5-10.667h-30l-5.834-18.333h-7l-9-27.5-7.499-21.833-17.167-51.667 1.833-10.5h218l5.896 9.398 86.104-.065-32-45.083zm-551.67 212.08h-222.33l-1.833-11.021 31.167-109.65 37.333.333 25.833-.333h133.17l-1.333 45.5-1.707 64.146-.293 11.021zm1.333 0 3.44-131.17h52.727l6.833 131.17h-63z" fill="#f7f867"/></g><g id="Layer_2" transform="translate(-171.15 -557.43)"><g id="shop1" class="shop"><polygon id="polygon8" points="360.25 1101.2 382.75 1101.2 319.5 1206.2 324.75 1217.2 440.5 1217.2 442 1222.3 529.33 1222.3 527.83 1225.2 530.92 1236.8 547.25 1236.8 537.33 1262.5 540.42 1274.9 573.75 1274.9 565.17 1298.7 568.67 1311.1 632.42 1311.1 630.28 1298.7 681 1111.8 627.33 1111.8 643.33 1065.2 641.17 1054.3 586.33 1054.3 583.83 1059.5 431.5 1059.3 428.83 1064 372.75 1064 356.5 1090.2" fill="#999"/><text x="435" y="1150" id="shop1-label" class="shop-label"></text></g><g id="shop5" class="shop"><polygon id="polygon10" points="558.5 958 538.83 997.67 540.83 1008 518.33 1008 500.25 1043.2 470.67 1043.2 462.17 1059.3 431.5 1059.3 409.33 1059.3 406.17 1048.8 480.83 924.67 668.83 924.83 670.17 935.33 659 967.5 656.83 958" fill="#999"/></g><g id="shop4" class="shop"><polygon id="polygon12" points="592.5 1003.3 640.5 1003.3 642.83 1013 659 967.5 656.83 958 558.5 958 538.83 997.67 540.83 1008 590.17 1008" fill="#999"/></g><polygon id="polygon14" points="642.83 1013 632.5 1042.2 630.33 1032.2 579.83 1032.2 590.17 1008 592.5 1003.3 640.5 1003.3" fill="#d6d6d6"/><polygon id="polygon16" points="632.5 1042.2 627.5 1054.3 576.83 1054.3 575 1044.5 579.83 1032.2 630.33 1032.2" fill="#d6d6d6"/><polygon id="polygon18" points="764 1107 766.33 1092.2 659.5 1092.2 654.83 1107" fill="#d6d6d6"/><g id="shop31" class="shop"><polygon id="polygon20" points="762.5 1111.8 726.83 1298.7 728.17 1311.1 632.42 1311.1 630.28 1298.7 681 1111.8" fill="#999"/></g><g id="shop30" class="shop"><polygon id="polygon22" points="762.5 1111.8 844.83 1111.8 825.83 1298.7 827.17 1311.1 728.17 1311.1 726.83 1298.7" fill="#999"/></g><g id="shop29" class="shop"><polygon id="polygon24" points="986.83 1186.5 991.83 1286.5 933.17 1286.5 933.17 1311.1 827.17 1311.1 825.83 1298.7 844.83 1111.8 936.83 1111.8 936.83 1186.5" fill="#999"/></g><g id="shop28" class="shop"><polygon id="polygon26" points="986.83 1186.5 983 1094.2 936.83 1094.2 936.83 1111.8 936.83 1186.5" fill="#999"/></g><g id="shop27" class="shop"><polygon id="polygon28" points="1076.7 1094.8 1003.4 1094.8 1002.5 1105.6 1008.6 1197.4 1089.2 1197.4 1090 1185.7" fill="#999"/></g><g id="shop26" class="shop"><polygon id="polygon30" points="1248.7 1285.8 1058.2 1285.8 1056.5 1272.5 1057.8 1260 1112.2 1260 1102.7 1197.4 1089.2 1197.4 1090 1185.7 1076.7 1094.8 1200.2 1094.8 1251.2 1274" fill="#999"/></g><g id="shop32" class="shop"><polygon id="polygon32" points="699 1032.2 689 1067.3 690.83 1078.3 736.67 1078.3 735 1067.3 743.67 1032.2" fill="#999"/></g><g id="shop61" class="shop"><polygon id="polygon34" points="792.33 1067.3 793.33 1078.3 736.67 1078.3 735 1067.3 743.67 1032.2 820.67 1032.2 818.17 1047.7 795.5 1047.7" fill="#999"/></g><g id="shop60" class="shop"><polygon id="polygon36" points="818.17 1047.7 815.83 1067.3 816.5 1078.3 793.33 1078.3 792.33 1067.3 795.5 1047.7" fill="#999"/></g><g id="shop59" class="shop"><polygon id="polygon38" points="853.17 1032.2 820.67 1032.2 818.17 1047.7 815.83 1067.3 816.5 1078.3 850.17 1078.3 849.33 1067.3" fill="#999"/></g><g id="shop33" class="shop"><polygon id="polygon40" points="707.33 1003.2 856.33 1003.2 853.17 1032.2 699 1032.2" fill="#999"/></g><g id="shop58" class="shop"><polygon id="polygon42" points="849.33 1067.3 856.33 1003.2 915.17 1003.2 913.17 1078.3 850.17 1078.3" fill="#999"/></g><g id="shop69" class="shop"><polygon id="polygon44" points="916.5 957.67 860.33 957.67 856.33 1003.2 915.17 1003.2" fill="#999"/></g><g id="shop70" class="shop"><polygon id="polygon46" points="860.33 957.67 810.33 957.67 803 1003.2 856.33 1003.2" fill="#999"/></g><g id="shop71" class="shop"><polygon id="polygon48" points="810.33 957.67 783.33 957.67 779.83 977.33 807.16 977.33" fill="#999"/></g><g id="shop35" class="shop"><path id="polygon52" d="m714.83 977.33 5.334-19.667 63.046.333-3.429 19.334z" fill="#999"/></g><g id="shop34" class="shop"><polygon id="polygon54" points="803 1003.2 707.33 1003.2 714.83 977.33 807.16 977.33" fill="#999"/></g><g id="shop57" class="shop"><polygon id="polygon56" points="1003.8 1032.2 977.5 1032.2 978.92 1078.3 1005.8 1078.3 1006.5 1067.3" fill="#999"/></g><g id="shop56" class="shop"><polygon id="polygon58" points="1006.5 1067.3 1005.8 1078.3 1075.7 1078.3 1077 1067.3 1066.5 1003.2 976.33 1003.2 977.5 1032.2 1003.8 1032.2" fill="#999"/></g><g id="shop68" class="shop"><polygon id="polygon60" points="1057.8 947.17 973.67 947.17 976.33 1003.2 1066.5 1003.2" fill="#999"/></g><g id="shop67" class="shop"><polygon id="polygon62" points="1057.8 947.17 1106.8 947.17 1112.7 977.33 1171.3 977.33 1178.5 1003.2 1066.5 1003.2" fill="#999"/></g><g id="shop50" class="shop"><polygon id="polygon64" points="1106.8 947.17 1162.8 947.17 1167.5 964.17 1128.5 964.17 1131.7 977.33 1112.7 977.33" fill="#999"/></g><polygon id="polygon66" points="1167.5 964.17 1128.5 964.17 1131.7 977.33 1171.3 977.33" fill="#d6d6d6"/><g id="shop53" class="shop"><polygon id="polygon68" points="1186.8 1032.2 1178.5 1003.2 1066.5 1003.2 1071.2 1032.2" fill="#999"/></g><g id="shop54" class="shop"><polygon id="polygon70" points="1186.8 1032.2 1197.2 1067.3 1195.3 1078.3 1139 1078.3 1140.8 1067.3 1133 1032.2" fill="#999"/></g><g id="shop55" class="shop"><polygon id="polygon72" points="1133 1032.2 1071.2 1032.2 1077 1067.3 1075.7 1078.3 1139 1078.3 1140.8 1067.3" fill="#999"/></g><polygon id="polygon74" points="1240.3 1048 1260.5 1107.5 1235 1107.5 1217.5 1048" fill="#d6d6d6"/><g id="shop24" class="shop"><path id="path76" d="m1611.3 1146.2-82.667-121.25h-44.333l-.833 6.833h-89l15.333 30.667h-130.33l-3 10.333 54.375 145.29h124.62l3.875-11.5-30-60.375zm-266.83-51.5h116.5l10.333 19.083h-118.33z" fill="#999"/></g><g id="shop25" class="shop"><polygon id="polygon78" points="1649.2 1218.1 1654.5 1206.6 1626.2 1168.8 1530.8 1168.8 1518.5 1146.2 1429.4 1146.2 1459.4 1206.6 1455.5 1218.1" fill="#999"/></g><g id="shop73" class="shop"><polygon id="polygon80" points="1530.8 1168.8 1518.5 1146.2 1611.3 1146.2 1626.2 1168.8" fill="#999"/></g><g id="shop23" class="shop"><polygon id="polygon82" points="1409.8 1062.5 1394.5 1031.8 1267.8 1031.8 1265 1042.5 1276.5 1072.8 1279.5 1062.5" fill="#999"/></g><g id="shop21" class="shop"><polygon id="polygon84" points="1370 1031.8 1370.8 1027.5 1381.3 1027.5 1383.7 1016.8 1362 976 1211.5 976 1209.7 986 1218.7 1013.5 1225.7 1013.5 1227.3 1004.3 1331.5 1004.3 1340.2 1022.2 1338.2 1031.8" fill="#999"/></g><g id="shop22" class="shop"><polygon id="polygon86" points="1331.5 1004.3 1227.3 1004.3 1225.7 1013.5 1231.5 1031.8 1338.2 1031.8 1340.2 1022.2" fill="#999"/></g><g id="shop20" class="shop"><polygon id="polygon88" points="1447.5 970 1424.8 970 1421.8 980.33 1432.2 998.17 1456 998.17 1458.8 988" fill="#999"/></g><g id="shop18" class="shop"><polygon id="polygon90" points="1404.8 902 1186.8 902 1185 912.5 1202.2 964.17 1204.7 953 1350.3 952.67 1358.7 970 1447.5 970" fill="#999"/><text x="1260" y="935" id="shop18-label" class="shop-label"></text></g><g id="shop19" class="shop"><polygon id="polygon92" points="1350.3 952.67 1204.7 953 1202.2 964.17 1209.7 986 1211.5 976 1362 976 1358.7 970" fill="#999"/></g><g id="shop16" class="shop"><polygon id="polygon94" points="1317.8 838.25 1285 838.25 1295 856.92 1293 866.25 1326.5 866.25 1328.6 856.92" fill="#999"/></g><g id="shop17" class="shop"><polygon id="polygon96" points="1413.2 856.92 1400.5 838.25 1317.8 838.25 1328.6 856.92 1326.5 866.25 1410.5 866.25" fill="#999"/></g><g id="shop15" class="shop"><polygon id="polygon98" points="1285 838.25 1295 856.92 1293 866.25 1153.9 866.25 1145.8 839.5 1146.8 828.88 1180.8 828.88 1232.1 803.62 1376.2 803.62 1400.5 838.25 1366.5 838.25 1360.5 829.12 1280.1 829.12" fill="#999"/></g><g id="shopPd" class="shop hideable" transform="translate(-88.249 -187.04)"><path id="path4790" transform="translate(309.35 711.43)" d="m886.65 306.69 3.1 12.34 12.755-.0262-.003-6.9824-3.9282-13.267-11.58-.15569z" fill="#999"/><path id="path4792" class="nofill" transform="translate(309.35 711.43)" d="m887 298.6 11.58.15569 3.928 13.267-11.424-.0588z" fill="none" stroke="#000" stroke-width=".3"/></g><g id="shopPc" class="shop hideable" transform="translate(-83.78 -172.37)"><path id="path4782" transform="translate(309.35 711.43)" d="m886.65 306.69 3.1 12.34 12.755-.0262-.003-6.9824-3.9282-13.267-11.58-.15569z" fill="#999"/><path id="path4784" class="nofill" transform="translate(309.35 711.43)" d="m887 298.6 11.58.15569 3.928 13.267-11.424-.0588z" fill="none" stroke="#000" stroke-width=".3"/></g><g id="shop14" class="shop"><path id="path100" d="m1340.9 751.58h-145.25l-1 9.543 1.875 4h9.5l1.125 3.5h-58.375l-.625 4-65.5.25-.75 8.75 9.5 40.125h49.375l5 17.75 1-10.625h34l51.375-25.25h144.12zm-182.88 43.168-2.75-9h77.125l4.625 9z" fill="#999"/></g><g id="shop13" class="shop"><polygon id="polygon102" points="1082.4 775.88 1082.6 772.88 1083.4 772.88 1083.4 770.38 1098.2 770.38 1098.6 761.5 1098.1 760 1009.8 760 1013.9 794.25 1019.1 794.25 1020.9 812.33 1020.9 821.88 1077.4 821.88 1078.2 812.33 1070.1 775.88" fill="#999"/></g><g id="shop12" class="shop"><polygon id="polygon104" points="943.88 812.33 943.88 821.88 1020.9 821.88 1020.9 812.33 1019.1 794.25 1013.9 794.25 1009.8 760 907.75 760 906.38 786.5 943.88 786.5" fill="#999"/></g><g id="shop11" class="shop"><polygon id="polygon106" points="904.88 821.88 904.88 812.33 906.38 786.5 943.88 786.5 943.88 812.33 943.88 821.88" fill="#999"/></g><polygon id="polygon108" points="885.75 828.38 887.25 816.88 886.62 805.38 867.25 805.38 865.5 820.88 865.5 828.38" fill="#d6d6d6"/><g id="shop10" class="shop"><polygon id="polygon110" points="802.75 768.5 846.88 768.5 847.62 779.38 840.5 825.12 791.62 825.12 791.62 816" fill="#999"/></g><g id="shop9" class="shop"><polygon id="polygon112" points="771.25 773.12 790.12 772.75 791.62 782.12 780 825.12 708.62 825.12 708.62 816.75 615.75 816.75 648.12 752.38 739.75 752.38 740.88 760.62 738.12 769.12 770.5 769.12" fill="#999"/></g><g id="shop8" class="shop"><path id="path114" d="m530.17 816.75-23.5 36.25h124.9l3.563-7.188h36.75l-.542 1.521h25l1 11.167 11.292-33.375v-8.375zm95.958 21.125h-83.625l5.5-9.375h82.875z" fill="#999"/></g><g id="shop7" class="shop"><polygon id="polygon116" points="689.62 865.88 691 875.88 697.33 858.5 696.33 847.33 671.33 847.33 671.88 845.81 635.12 845.81 631.56 853 625.88 865.88" fill="#999"/></g><g id="shop6" class="shop"><polygon id="polygon118" points="691 875.88 678.38 911.75 478.5 911.75 475.75 901.88 506.67 853 631.56 853 625.88 865.88 689.62 865.88" fill="#999"/></g><polygon id="polygon120" points="726.83 865.83 737.67 832 720 832 708.62 865.83" fill="#d6d6d6"/><g id="shop36" class="shop"><polygon id="polygon122" points="725 905.25 718.62 926.83 720 937.25 766.38 937.25 765.12 926.83 770.25 905.25" fill="#999"/></g><g id="shop37" class="shop"><polygon id="polygon124" points="774.88 883.75 731.62 883.75 725 905.25 770.25 905.25" fill="#999"/></g><g id="shop38" class="shop"><polygon id="polygon126" points="867.12 863.75 737.67 863.75 731.62 883.75 865.62 883.75" fill="#999"/></g><polygon id="polygon128" points="737.67 863.75 823.25 863.75 826.62 845.81 743 845.25" fill="#d6d6d6"/><polygon id="polygon130" points="743 845.25 784.12 845.53 788 828.38 748 828.38" fill="#d6d6d6"/><polygon id="polygon132" points="826.62 845.81 784.12 845.53 788 828.38 829.25 828.38" fill="#d6d6d6"/><g id="shop42" class="shop"><polygon id="polygon134" points="826.62 845.81 829.25 828.38 871 828.38 867.12 863.75 823.25 863.75" fill="#999"/></g><g id="shop62" class="shop"><polygon id="polygon136" points="765.12 926.83 770.25 905.25 774.88 883.75 865.62 883.75 862.88 905.25 816.62 905.25 812.5 926.83 813 937.25 766.38 937.25" fill="#999"/></g><g id="shop63" class="shop"><polygon id="polygon138" points="861.5 937.25 861 926.83 862.88 905.25 816.62 905.25 812.5 926.83 813 937.25" fill="#999"/></g><g id="shop64" class="shop"><polygon id="polygon140" points="918.5 913.62 917.75 937.25 861.5 937.25 861 926.83 862.88 905.25 865.62 883.75 867.12 863.75 871 828.38 914.5 828.38 912.5 884.88 937.62 884.88 937.62 913.62" fill="#999"/></g><g id="shop44" class="shop"><polygon id="polygon142" points="914.5 828.38 912.5 884.88 937.62 884.88 954.38 884.88 953.38 828.38" fill="#999"/></g><g id="shop45" class="shop"><polygon id="polygon144" points="953.38 828.38 998.38 828.38 1003 884.88 954.38 884.88" fill="#999"/></g><g id="shop46" class="shop"><polygon id="polygon146" points="998.38 828.38 1040.5 828.38 1043.9 851 1000.2 851" fill="#999"/></g><polygon id="shop47" points="1043.1 845.5 1040.5 828.38 1084.5 828.38 1088.2 845.5" fill="#999" class="shop"/><path id="shop48" d="m1088.2 845.5h-45.196l.821 5.5.3239 2.625h45.926z" fill="#999" class="shop"/><g id="shop49" class="shop"><path id="polygon152" d="m1031.4 887.12 1.25 9.5h63.563l.875-10.25-5.2244-24.227h-46.423l-1.6023-11.148h-43.648l2.773 33.875h24.75l.375 2.25z" fill="#999"/></g><g id="shop65" class="shop"><polygon id="polygon154" points="1028.1 887.12 1027.8 884.88 1003 884.88 937.62 884.88 937.62 913.62 972 913.62 973.12 937.25 1036 937.25 1036.8 926.83 1032.7 896.62 1031.4 887.12" fill="#999"/></g><polygon id="polygon156" points="936.92 931.25 936.92 913.62 918.5 913.62 917.94 931.25" fill="#d6d6d6"/><rect id="rect158" x="936.92" y="913.62" width="17.458" height="17.626" fill="#d6d6d6"/><polygon id="polygon160" points="972.84 931.25 954.38 931.25 954.38 913.62 972 913.62" fill="#d6d6d6"/><g id="shop66" class="shop"><polygon id="polygon162" points="1033.9 905.73 1068.4 905.73 1071 921.25 1070.4 931.25 1036.4 931.25 1036.8 926.83" fill="#999"/></g><polygon id="polygon164" points="810.33 945 899.31 945 898.67 957.67 808 957.67" fill="#d6d6d6"/><polygon id="polygon166" points="1066.5 905.73 1068.4 905.73 1071 921.25 1070.4 931.25 1104.4 931.25 1096.2 896.62 1065 896.62" fill="#d6d6d6"/><path id="path168" d="m1158.4 924.45c.015-.41.01-.823-.026-1.239.001-.137.015-.273.011-.412.036-.506.034-1.017-.01-1.532.067-3.394-1.498-7.013-4.536-9.602-6.713-5.72-16.019-6.722-21.583-2.833-2.482 1.735-3.535 4.099-3.423 6.694-.03.375-.031.757-.01 1.144-.015.24.01.488.013.733-.042.442-.046.893-.014 1.351-.01.195.012.397.016.595-.36 3.505 1.654 7.583 5.478 11.179 5.348 5.029 14.707 6.942 20.271 3.054 2.725-1.904 3.932-4.857 3.808-7.934.022-.396.022-.796 0-1.198z" fill="#d6d6d6"/><g id="shopPb" class="shop hideable" transform="translate(-78.808 -156.89)"><path id="path4525-4" transform="translate(309.35 711.43)" d="m886.65 306.69 3.1 12.34 12.755-.0262-.003-6.9824-3.9282-13.267-11.58-.15569z" fill="#999"/><path id="path3990-2" class="nofill" transform="translate(309.35 711.43)" d="m887 298.6 11.58.15569 3.928 13.267-11.424-.0588z" fill="none" stroke="#000" stroke-width=".3"/></g><g id="shopPa" class="shop hideable" transform="translate(-73.959 -141.53)"><path id="path4525-4-0" transform="translate(309.35 711.43)" d="m886.65 306.69 3.1 12.34 12.755-.0262-.003-6.9824-3.9282-13.267-11.58-.15569z" fill="#999"/><path id="path3990-2-6" class="nofill" transform="translate(309.35 711.43)" d="m887 298.6 11.58.15569 3.928 13.267-11.424-.0588z" fill="none" stroke="#000" stroke-width=".3"/></g><g id="g4816" class="shop hideable" transform="translate(-93.897 -99.85)" style="display:none"><path id="path4525-4-4" transform="translate(309.35 711.43)" d="m886.65 306.69 3.1 12.34 12.755-.0262-.003-6.9824-3.9282-13.267-11.58-.15569z" fill="#d6d6d6"/><path id="path3990-2-2" class="nofill" transform="translate(309.35 711.43)" d="m887 298.6 11.58.15569 3.928 13.267-11.424-.0588z" fill="none" stroke="#000" stroke-width=".3"/></g><g id="shopPi" class="shop hideable" transform="translate(-3.5323e-6 3.4276e-6)"><path id="path4525" transform="translate(309.35 711.43)" d="m884.08 303.53 5.5341 15.277 12.1.34293.79134-7.1242-5.3682-15.427-12.252-.50177z" fill="#999"/><path id="path3990" class="nofill" transform="translate(309.35 711.43)" d="m884.88 296.1 12.252.50177 5.3682 15.427-11.424-.0588z" fill="none" stroke="#000" stroke-width=".3"/></g><g id="shopPe" class="shop hideable" transform="translate(-495.17 -127.83)"><path id="path4525-0-8-7-5" transform="translate(309.35 711.43)" d="m884.6 312.09-.0919 6.5817 13.633.37535 4.6189-17.027.2146-5.8811-12.755-.008z" fill="#999"/><path id="path3990-06-7-60-0" class="nofill" transform="translate(309.35 711.43)" d="m890.22 295.93 12.255.20819-4.7042 16.153-13.17-.20216z" fill="none" stroke="#000" stroke-width=".3"/></g><g id="shopPl" class="shop hideable" transform="translate(-512.44 -71.183)"><path id="path4525-0-8-7-6" transform="translate(309.35 711.43)" d="m884.6 312.09-.0919 6.5817 13.633.37535 4.6189-17.027.2146-5.8811-12.755-.008z" fill="#999"/><path id="path3990-06-7-60-8" class="nofill" transform="translate(309.35 711.43)" d="m890.22 295.93 12.255.20819-4.7042 16.153-13.17-.20216z" fill="none" stroke="#000" stroke-width=".3"/></g><g id="shopPh" class="shop hideable" transform="translate(-420.87 -75.097)"><path id="path4525-0-8-7-5-5" transform="translate(309.35 711.43)" d="m884.6 312.09-.0919 6.5817 23.15-.19283 1.6939-7.3415.20898-8.6802-22.357.008z" fill="#999"/><path id="path3990-06-7-60-0-7" class="nofill" transform="translate(309.35 711.43)" d="m887.21 302.47 22.357-.008-1.9894 9.5188-22.971.11375z" fill="none" stroke="#000" stroke-width=".3"/></g><g id="shopPk" class="shop hideable" transform="translate(-392.53 74.513)"><path id="path4525-0-8-7-5-5-6" transform="translate(309.35 711.43)" d="m884.6 312.09-.0919 6.5817 23.15-.19283 1.6939-7.3415.20898-8.6802-22.357.008z" fill="#999"/><path id="path3990-06-7-60-0-7-6" class="nofill" transform="translate(309.35 711.43)" d="m887.21 302.47 22.357-.008-1.9894 9.5188-22.971.11375z" fill="none" stroke="#000" stroke-width=".3"/></g><g id="shopPj" class="shop hideable" transform="translate(-359.35 74.468)"><path id="path4525-0-8-7-5-5-4" transform="translate(309.35 711.43)" d="m884.6 312.09-.0919 6.5817 23.15-.19283.69392-7.7415.009-8.2802-22.557.008z" fill="#999"/><path id="path3990-06-7-60-0-7-8" class="nofill" transform="translate(309.35 711.43)" d="m885.81 302.47 22.557-.008-.78944 9.5188-22.971.11375z" fill="none" stroke="#000" stroke-width=".3"/></g><g id="shopPf" class="shop hideable" transform="translate(-503.59 -98.867)" style="display:none"><path id="path4525-0-8-7-5-8" transform="translate(309.35 711.43)" d="m884.6 312.09-.0919 6.5817 13.633.37535 4.6189-17.027.2146-5.8811-12.755-.008z" fill="#d6d6d6"/><path id="path3990-06-7-60-0-3" class="nofill" transform="translate(309.35 711.43)" d="m890.22 295.93 12.255.20819-4.7042 16.153-13.17-.20216z" fill="none" stroke="#000" stroke-width=".3"/></g><g id="shopPg" class="shop hideable" transform="translate(-454.42 -75.097)"><path id="path4806" transform="translate(309.35 711.43)" d="m884.6 312.09-.0919 6.5817 23.15-.19283 1.6939-7.3415.20898-8.6802-22.357.008z" fill="#999"/><path id="path4808" class="nofill" transform="translate(309.35 711.43)" d="m887.21 302.47 22.357-.008-1.9894 9.5188-22.971.11375z" fill="none" stroke="#000" stroke-width=".3"/></g><g id="shopPm" class="shop hideable" transform="matrix(-1 0 0 1 2630.6 -126.23)"><path id="path4818" transform="translate(309.35 711.43)" d="m880.64 312.09-.0919 7.1499 23.895-.19283 5.2596-8.3993-.004-8.1906-22.495.008z" fill="#999"/><path id="path4820" class="nofill" transform="translate(309.35 711.43)" d="m887.21 302.47 22.357-.008-5.7536 9.5188-22.971.11375z" fill="none" stroke="#000" stroke-width=".3"/></g><path id="shop48a" d="m1090.1 853.59-45.835.0644c.014.0359 1.2661 8.4624 1.2661 8.4624h46.444z" fill="#999" class="shop"/></g><g id="Layer_3" transform="translate(-171.15 -557.43)"><polygon id="polygon171" points="529.33 1222.3 527.83 1225.2 552 1225.2 547.25 1236.8 537.33 1262.5 577.5 1262.5 573.75 1274.9 565.17 1298.7 630.28 1298.7 681 1111.8 621 1111.8 641.17 1054.3 586.33 1054.3 583.83 1059.5 431.5 1059.3 428.83 1064 372.75 1064 356.5 1090.2 387.5 1090.2 382.75 1101.2 319.5 1206.2 441.25 1206.2 438.25 1211.5 533.5 1211.5" fill="none" stroke="#020202" stroke-miterlimit="10" stroke-width=".3"/><polygon id="polygon173" points="681 1111.8 630.28 1298.7 726.83 1298.7 762.5 1111.8" fill="none" stroke="#020202" stroke-miterlimit="10" stroke-width=".3"/><polygon id="polygon175" points="762.5 1111.8 844.83 1111.8 825.83 1298.7 726.83 1298.7" fill="none" stroke="#020202" stroke-miterlimit="10" stroke-width=".3"/><polygon id="polygon177" points="825.83 1298.7 844.83 1111.8 936.83 1111.8 936.83 1186.5 986.83 1186.5 991.18 1273.5 934.17 1273.5 933.17 1286.5 933.17 1298.7" fill="none" stroke="#020202" stroke-miterlimit="10" stroke-width=".3"/><polygon id="polygon179" points="983 1094.2 936.83 1094.2 936.83 1111.8 936.83 1186.5 986.83 1186.5" fill="none" stroke="#020202" stroke-miterlimit="10" stroke-width=".3"/><polygon id="polygon181" points="1076.7 1094.8 1003.4 1094.8 1010.4 1185.5 1090 1185.7" fill="none" stroke="#020202" stroke-miterlimit="10" stroke-width=".3"/><polygon id="polygon183" points="1251.2 1274 1200.2 1094.8 1076.7 1094.8 1090 1185.7 1106 1185.7 1117.4 1259.9 1112.2 1260 1057.8 1260 1059.8 1273.8" fill="none" stroke="#020202" stroke-miterlimit="10" stroke-width=".3"/><polygon id="polygon185" points="1279.5 1062.5 1409.8 1062.5 1394.5 1031.8 1483.5 1031.8 1488.3 1031.8 1484.3 1025 1528.7 1025 1611.3 1146.2 1429.4 1146.2 1459.4 1206.6 1337.4 1206.6" fill="none" stroke="#020202" stroke-miterlimit="10" stroke-width=".3"/><polygon id="polygon187" points="1530.8 1168.8 1626.2 1168.8 1654.5 1206.6 1459.4 1206.6 1429.4 1146.2 1518.5 1146.2" fill="none" stroke="#020202" stroke-miterlimit="10" stroke-width=".3"/><polygon id="polygon189" points="1518.5 1146.2 1611.3 1146.2 1626.2 1168.8 1530.8 1168.8" fill="none" stroke="#020202" stroke-miterlimit="10" stroke-width=".3"/><polygon id="polygon191" points="1057.8 947.17 973.67 947.17 976.33 1003.2 1066.5 1003.2" fill="none" stroke="#020202" stroke-miterlimit="10" stroke-width=".3"/><polygon id="polygon193" points="1112.7 977.33 1171.3 977.33 1178.5 1003.2 1066.5 1003.2 1057.8 947.17 1106.8 947.17" fill="none" stroke="#020202" stroke-miterlimit="10" stroke-width=".3"/><polygon id="polygon195" points="1167.5 964.17 1128.5 964.17 1131.7 977.33 1112.7 977.33 1106.8 947.17 1162.8 947.17" fill="none" stroke="#020202" stroke-miterlimit="10" stroke-width=".3"/><g id="shop51" class="shop"><polygon id="polygon197" points="1167.5 964.17 1128.5 964.17 1131.7 977.33 1171.3 977.33" fill="#999" stroke="#020202" stroke-miterlimit="10" stroke-width=".3"/></g><polygon id="polygon199" points="1178.5 1003.2 1066.5 1003.2 1071.2 1032.2 1186.8 1032.2" fill="none" stroke="#020202" stroke-miterlimit="10" stroke-width=".3"/><polygon id="polygon201" points="1140.8 1067.3 1077 1067.3 1071.2 1032.2 1133 1032.2" fill="none" stroke="#020202" stroke-miterlimit="10" stroke-width=".3"/><polygon id="polygon203" points="1133 1032.2 1186.8 1032.2 1197.2 1067.3 1140.8 1067.3" fill="none" stroke="#020202" stroke-miterlimit="10" stroke-width=".3"/><polygon id="polygon205" points="1003.8 1032.2 1006.5 1067.3 1077 1067.3 1071.2 1032.2 1066.5 1003.2 976.33 1003.2 977.5 1032.2" fill="none" stroke="#020202" stroke-miterlimit="10" stroke-width=".3"/><polygon id="polygon207" points="977.5 1032.2 978.58 1067.3 1006.5 1067.3 1003.8 1032.2" fill="none" stroke="#020202" stroke-miterlimit="10" stroke-width=".3"/><polygon id="polygon209" points="915.17 1003.2 856.33 1003.2 849.33 1067.3 913.46 1067.3" fill="none" stroke="#020202" stroke-miterlimit="10" stroke-width=".3"/><polygon id="polygon211" points="916.5 957.67 860.33 957.67 856.33 1003.2 915.17 1003.2" fill="none" stroke="#020202" stroke-miterlimit="10" stroke-width=".3"/><polygon id="polygon213" points="860.33 957.67 810.33 957.67 803 1003.2 856.33 1003.2" fill="none" stroke="#020202" stroke-miterlimit="10" stroke-width=".3"/><polygon id="polygon215" points="810.33 957.67 783.33 957.67 779.83 977.33 807.16 977.34" fill="none" stroke="#020202" stroke-miterlimit="10" stroke-width=".3"/><path id="polygon219" d="m783.41 957.7-63.247-.0317-5.334 19.667h64.951z" fill="none" stroke="#020202" stroke-miterlimit="10" stroke-width=".3"/><polygon id="polygon221" points="803 1003.2 707.33 1003.2 714.83 977.33 807.16 977.34" fill="none" stroke="#020202" stroke-miterlimit="10" stroke-width=".3"/><polygon id="polygon223" points="853.17 1032.2 699 1032.2 707.33 1003.2 856.33 1003.2" fill="none" stroke="#020202" stroke-miterlimit="10" stroke-width=".3"/><polygon id="polygon225" points="743.67 1032.2 735 1067.3 689 1067.3 699 1032.2" fill="none" stroke="#020202" stroke-miterlimit="10" stroke-width=".3"/><polygon id="polygon227" points="735 1067.3 743.67 1032.2 820.67 1032.2 818.17 1047.7 795.5 1047.7 792.33 1067.3" fill="none" stroke="#020202" stroke-miterlimit="10" stroke-width=".3"/><polygon id="polygon229" points="792.33 1067.3 815.83 1067.3 818.17 1047.7 795.5 1047.7" fill="none" stroke="#020202" stroke-miterlimit="10" stroke-width=".3"/><polygon id="polygon231" points="853.17 1032.2 849.33 1067.3 815.83 1067.3 818.17 1047.7 820.67 1032.2" fill="none" stroke="#020202" stroke-miterlimit="10" stroke-width=".3"/><g id="shop2" class="shop"><polygon id="polygon233" points="575 1044.5 625 1044.5 630.33 1032.2 579.83 1032.2" fill="#999" stroke="#020202" stroke-miterlimit="10" stroke-width=".3"/></g><g id="shop3" class="shop"><polygon id="polygon235" points="590.17 1008 579.83 1032.2 630.33 1032.2 640.5 1003.3 592.5 1003.3" fill="#999" stroke="#020202" stroke-miterlimit="10" stroke-width=".3"/></g><polygon id="polygon237" points="538.83 997.67 594.83 997.67 592.5 1003.3 640.5 1003.3 656.83 958 558.5 958" fill="none" stroke="#020202" stroke-miterlimit="10" stroke-width=".3"/><polygon id="polygon239" points="480.83 924.67 668.83 924.83 656.83 958 558.5 958 538.83 997.67 515.33 997.67 497.5 1033.2 468.33 1033.2 458.5 1048.8 406.17 1048.8" fill="none" stroke="#020202" stroke-miterlimit="10" stroke-width=".3"/><polygon id="polygon241" points="674.67 901.88 475.75 901.88 506.67 853 631.56 853 625.88 865.88 689.62 865.88" fill="none" stroke="#020202" stroke-miterlimit="10" stroke-width=".3"/><polygon id="polygon243" points="625.88 865.88 689.62 865.88 696.33 847.33 671.33 847.33 671.88 845.81 635.12 845.81 631.56 853" fill="none" stroke="#020202" stroke-miterlimit="10" stroke-width=".3"/><polygon id="polygon245" points="530.17 816.75 506.67 853 631.56 853 635.12 845.81 671.88 845.81 671.33 847.33 696.33 847.33 708.62 816.75" fill="none" stroke="#020202" stroke-miterlimit="10" stroke-width=".3"/><polygon id="polygon247" points="708.62 816.75 778.25 816.75 790.12 772.75 771.25 773.12 768.96 773.17 770.5 769.12 738.12 769.12 733.83 769.12 739.75 752.38 648.12 752.38 615.75 816.75" fill="none" stroke="#020202" stroke-miterlimit="10" stroke-width=".3"/><polygon id="polygon249" points="802.75 768.5 791.62 816 839.38 816 846.88 768.5" fill="none" stroke="#020202" stroke-miterlimit="10" stroke-width=".3"/><polygon id="polygon251" points="886.62 805.38 867.25 805.38 865.56 820.34 885.25 820.34" fill="none" stroke="#020202" stroke-miterlimit="10" stroke-width=".3"/><polygon id="polygon253" points="906.38 786.5 904.88 812.33 943.88 812.33 943.88 786.5" fill="none" stroke="#020202" stroke-miterlimit="10" stroke-width=".3"/><polygon id="polygon255" points="1009.8 760 907.75 760 906.38 786.5 943.88 786.5 943.88 812.33 1020.9 812.33 1019.1 794.25 1013.9 794.25" fill="none" stroke="#020202" stroke-miterlimit="10" stroke-width=".3"/><polygon id="polygon257" points="1081.9 761.5 1083.5 768.25 1068 768.25 1070.1 775.88 1078.2 812.33 1020.9 812.33 1019.1 794.25 1013.9 794.25 1009.8 760 1098.1 760 1098.6 761.5" fill="none" stroke="#020202" stroke-miterlimit="10" stroke-width=".3"/><g id="shop40" class="shop"><polygon id="polygon259" points="743 845.25 784.12 845.53 788 828.38 748 828.38" fill="#999" stroke="#020202" stroke-miterlimit="10" stroke-width=".3"/></g><g id="shop41" class="shop"><polygon id="polygon261" points="784.12 845.53 788 828.38 829.25 828.38 826.62 845.81" fill="#999" stroke="#020202" stroke-miterlimit="10" stroke-width=".3"/></g><polygon id="polygon263" points="829.25 828.38 871 828.38 867.12 863.75 823.25 863.75 826.62 845.81" fill="none" stroke="#020202" stroke-miterlimit="10" stroke-width=".3"/><g id="shop39" class="shop"><polygon id="polygon265" points="743 845.25 784.12 845.53 826.62 845.81 823.25 863.75 737.67 863.75" fill="#999" stroke="#020202" stroke-miterlimit="10" stroke-width=".3"/></g><polygon id="polygon267" points="865.62 883.75 731.62 883.75 737.67 863.75 867.12 863.75" fill="none" stroke="#020202" stroke-miterlimit="10" stroke-width=".3"/><polygon id="polygon269" points="770.25 905.25 725 905.25 731.62 883.75 774.88 883.75" fill="none" stroke="#020202" stroke-miterlimit="10" stroke-width=".3"/><polygon id="polygon271" points="765.12 926.83 718.62 926.83 725 905.25 770.25 905.25" fill="none" stroke="#020202" stroke-miterlimit="10" stroke-width=".3"/><polygon id="polygon273" points="765.12 926.83 812.5 926.83 816.62 905.25 862.88 905.25 865.62 883.75 774.88 883.75 770.25 905.25" fill="none" stroke="#020202" stroke-miterlimit="10" stroke-width=".3"/><polygon id="polygon275" points="812.5 926.83 861 926.83 862.88 905.25 816.62 905.25" fill="none" stroke="#020202" stroke-miterlimit="10" stroke-width=".3"/><polygon id="polygon277" points="918.08 926.83 861 926.83 862.88 905.25 865.62 883.75 867.12 863.75 871 828.38 914.5 828.38 912.5 884.88 937.62 884.88 937.62 913.62 918.5 913.62" fill="none" stroke="#020202" stroke-miterlimit="10" stroke-width=".3"/><polygon id="polygon279" points="918.5 913.62 918.26 921.25 936.92 921.25 936.92 913.62" fill="none" stroke="#020202" stroke-miterlimit="10" stroke-width=".3"/><rect id="rect281" x="936.92" y="913.62" width="17.458" height="7.625" fill="none" stroke="#020202" stroke-miterlimit="10" stroke-width=".3"/><polygon id="polygon283" points="954.38 913.62 972 913.62 972.36 921.25 954.38 921.25" fill="none" stroke="#020202" stroke-miterlimit="10" stroke-width=".3"/><polygon id="polygon285" points="937.62 913.62 937.62 884.88 1027.8 884.88 1028.1 887.12 1031.4 887.12 1036.8 926.83 972.63 926.83 972 913.62" fill="none" stroke="#020202" stroke-miterlimit="10" stroke-width=".3"/><polygon id="polygon287" points="912.5 884.88 914.5 828.38 953.38 828.38 954.38 884.88" fill="none" stroke="#020202" stroke-miterlimit="10" stroke-width=".3"/><polygon id="polygon289" points="953.38 828.38 998.38 828.38 1003 884.88 954.38 884.88" fill="none" stroke="#020202" stroke-miterlimit="10" stroke-width=".3"/><polygon id="polygon291" points="998.38 828.38 1040.5 828.38 1043.1 845.5 1043.9 851 1000.2 851" fill="none" stroke="#020202" stroke-miterlimit="10" stroke-width=".3"/><g id="g4297" class="shop"><polygon id="polygon293" points="1088.2 845.5 1043.1 845.5 1040.5 828.38 1084.5 828.38" fill="#999" stroke="#020202" stroke-miterlimit="10" stroke-width=".3"/></g><g id="g4299" class="shop"><path id="polygon295" d="m1044.3 853.62h45.855l-1.875-8.125h-45.196l.821 5.5z" fill="#999" stroke="#020202" stroke-miterlimit="10" stroke-width=".3"/></g><path id="polygon297" d="m1027.8 884.88h-24.75l-2.773-33.875h43.648l1.6733 11.219h46.423l5.1534 24.156-65.688.75h-3.312z" fill="none" stroke="#020202" stroke-miterlimit="10" stroke-width=".3"/><polygon id="polygon299" points="1036 921.25 1033.9 905.62 1068.4 905.73 1071 921.25" fill="none" stroke="#020202" stroke-miterlimit="10" stroke-width=".3"/><path id="path301" d="m1153.8 911.67c5.587 4.761 6.315 13.028.75 16.917-5.564 3.889-14.924 1.976-20.271-3.054-6.146-5.78-7.626-12.808-2.062-16.696 5.564-3.889 14.87-2.887 21.583 2.833z" fill="none" stroke="#020202" stroke-miterlimit="10" stroke-width=".3"/><polygon id="polygon303" points="1362 976 1211.5 976 1221.2 1003.2 1221.7 1004.3 1227.3 1004.3 1331.5 1004.3 1340.2 1022.2 1371.6 1022.2 1368.7 1016.8 1383.7 1016.8" fill="none" stroke="#020202" stroke-miterlimit="10" stroke-width=".3"/><polygon id="polygon305" points="1331.5 1004.3 1227.3 1004.3 1233.4 1022.2 1340.2 1022.2" fill="none" stroke="#020202" stroke-miterlimit="10" stroke-width=".3"/><polygon id="polygon307" points="1447.5 970 1424.8 970 1436.2 988 1458.8 988" fill="none" stroke="#020202" stroke-miterlimit="10" stroke-width=".3"/><polygon id="polygon309" points="1350.3 952.67 1204.7 953 1211.5 976 1362 976 1358.7 970" fill="none" stroke="#020202" stroke-miterlimit="10" stroke-width=".3"/><polygon id="polygon311" points="1204.7 953 1350.3 952.67 1358.7 970 1447.5 970 1404.8 902 1186.8 902" fill="none" stroke="#020202" stroke-miterlimit="10" stroke-width=".3"/><polygon id="polygon313" points="1295 856.92 1285 838.25 1280.1 829.12 1360.5 829.12 1366.5 838.25 1400.5 838.25 1376.2 803.62 1232.1 803.62 1180.8 828.88 1146.8 828.88 1156.3 856.92" fill="none" stroke="#020202" stroke-miterlimit="10" stroke-width=".3"/><polygon id="polygon315" points="1285 838.25 1317.8 838.25 1328.6 856.92 1295 856.92" fill="none" stroke="#020202" stroke-miterlimit="10" stroke-width=".3"/><polygon id="polygon317" points="1317.8 838.25 1400.5 838.25 1413.2 856.92 1328.6 856.92" fill="none" stroke="#020202" stroke-miterlimit="10" stroke-width=".3"/><polygon id="polygon319" points="1180.8 828.88 1232.1 803.62 1376.2 803.62 1340.9 751.58 1195.6 751.58 1198.5 757.67 1207.3 757.67 1212.2 768.62 1207.1 768.62 1148.8 768.62 1150.5 772.83 1082.6 772.88 1092.5 812.33 1141.8 812.33 1146.8 828.88" fill="none" stroke="#020202" stroke-miterlimit="10" stroke-width=".3"/><polygon id="polygon321" points="1394.5 1031.8 1267.8 1031.8 1279.5 1062.5 1409.8 1062.5" fill="none" stroke="#020202" stroke-miterlimit="10" stroke-width=".3"/><g id="g4299-3" class="shop" transform="translate(1.7946 8.188)"><path id="polygon295-4" d="m1043.7 854.01 46.445-.006-1.8409-8.5701h-45.848c.4581 2.7002.7395 5.8556 1.2442 8.5764z" fill="#999" stroke="#020202" stroke-miterlimit="10" stroke-width=".3"/></g></g><g id="g3223" transform="translate(138.2 154)"><image id="image7331" class="poi poielevator" x="613.64" y="187.5" width="47" height="47" xlink:href="./logos/poi_elevator.png"/><image id="image7393-1" class="poi poiescalator" x="394.32" y="114.77" width="47" height="47" xlink:href="./logos/poi_escalator.png"/><image id="image7393-1-7" class="poi poiescalator" x="375.36" y="361.83" width="47" height="47" xlink:href="./logos/poi_escalator.png"/><image id="image7393-1-5" class="poi poiescalator" x="519.68" y="206.15" width="47" height="47" xlink:href="./logos/poi_escalator.png"/><image id="image7393-1-5-6" class="poi poiescalator" x="909.45" y="342.52" width="47" height="47" xlink:href="./logos/poi_escalator.png"/><image id="image7529" class="poi poistair" x="716.27" y="192.52" width="47" height="47" xlink:href="./logos/poi_stair.png"/><image id="image7529-2" class="poi poistair" x="764" y="167.52" width="47" height="47" xlink:href="./logos/poi_stair.png"/><image id="image3346" class="poi poiinfo" x="818.32" y="176.61" width="47" height="47" xlink:href="./logos/poi_info.png"/><image id="image7393-1-5-6-2" class="poi poibankomat" x="424.88" y="255.1" width="47" height="47" fill="#0000ba" fill-opacity=".039216" xlink:href="./logos/poi_bankomat.png"/><image id="image7393-1-5-6-2-0" class="poi poibankomat" x="1204.3" y="454.38" width="47" height="47" fill="#0000ba" fill-opacity=".039216" xlink:href="./logos/poi_bankomat.png"/></g><g id="layer1" transform="translate(48.201 154)" fill="#6d6e71"><g id="g3336" transform="matrix(1.3805 0 0 1.3805 -715.61 -1176.3)"><path id="path3338" d="m646.62 1029h-14.315l5.083-4.188-4.583-4.188h-1.667l4.5 4.25-5.25 4.125h-2.185l5.083-4.188-4.583-4.188h-1.667l4.5 4.25-5.25 4.125h-7.667v25.5h41c4.75 0 5-5 5-7.75s-17.999-17.748-17.999-17.748zm-18.188 12.75h-8.875v-7.625h8.875v7.625zm10.125 0h-8.875v-7.625h8.875v7.625zm1.25 0v-7.625h4.75l7.5 7.625h-12.25zm13.625 0-7.5-7.625h5.493l7.5 7.625h-5.493z"/><path id="path3340" d="m623.72 1057.9c2.625 0 3.125-2.417 3.125-2.417h-6.25s.5 2.417 3.125 2.417z"/><path id="path3342" d="m641.31 1057.9c2.625 0 3.125-2.417 3.125-2.417h-6.25s.5 2.417 3.125 2.417z"/><path id="path3344" d="m651.06 1057.9c2.625 0 3.125-2.417 3.125-2.417h-6.25s.5 2.417 3.125 2.417z"/></g><g id="g3324" transform="translate(-470.72 -779.93)"><path id="path3326" d="m533.3 1030.9c-5.951 0-10.775 4.824-10.775 10.775s4.824 10.775 10.775 10.775c5.952 0 10.775-4.824 10.775-10.775s-4.823-10.775-10.775-10.775zm0 16.123c-2.954 0-5.348-2.395-5.348-5.348s2.394-5.348 5.348-5.348 5.348 2.395 5.348 5.348-2.394 5.348-5.348 5.348z"/><path id="path3328" d="m556.13 1030.9c-5.952 0-10.775 4.824-10.775 10.775s4.824 10.775 10.775 10.775 10.775-4.824 10.775-10.775-4.823-10.775-10.775-10.775zm0 16.123c-2.954 0-5.348-2.395-5.348-5.348s2.394-5.348 5.348-5.348 5.348 2.395 5.348 5.348-2.393 5.348-5.348 5.348z"/><path id="path3330" d="m578.96 1030.9c-5.952 0-10.775 4.824-10.775 10.775s4.824 10.775 10.775 10.775 10.775-4.824 10.775-10.775-4.824-10.775-10.775-10.775zm0 16.123c-2.954 0-5.348-2.395-5.348-5.348s2.394-5.348 5.348-5.348 5.348 2.395 5.348 5.348-2.395 5.348-5.348 5.348z"/><rect id="rect3332" x="538.65" y="1023.1" width="5.427" height="7.822"/><rect id="rect3334" x="544.07" y="1052.5" width="5.428" height="7.822"/></g></g></svg></g></svg>
